{
  "variants": {
    "facing=north": {
      "model": "animeco:block/mario"
    },
    "facing=east": {
      "model": "animeco:block/mario",
      "y": 90
    },
    "facing=south": {
      "model": "animeco:block/mario",
      "y": 180
    },
    "facing=west": {
      "model": "animeco:block/mario",
      "y": 270
    }
  }
}